<svg id="clipboard" xmlns="http://www.w3.org/2000/svg" viewBox="0 0 20 25">
  <defs>
    <style>
      .cls-1 {
        fill: #babecc;
      }
    </style>
  </defs>
  <path id="Path_15" data-name="Path 15" class="cls-1" d="M1,86.107H19a.963.963,0,0,0,1-.921V64.921A.963.963,0,0,0,19,64H16v.921a.963.963,0,0,1-1,.921H5a.963.963,0,0,1-1-.921V64H1a.963.963,0,0,0-1,.921V85.186A.963.963,0,0,0,1,86.107Zm3-16.58H16a.924.924,0,1,1,0,1.842H4a.924.924,0,1,1,0-1.842Zm0,5.527H16A.924.924,0,1,1,16,76.9H4a.924.924,0,1,1,0-1.842ZM4,80.58H16a.924.924,0,1,1,0,1.842H4A.924.924,0,1,1,4,80.58Zm0,0" transform="translate(0 -61.107)"/>
  <path id="Path_16" data-name="Path 16" class="cls-1" d="M96,1.446V2.893h5.785V1.446h-1.446a.723.723,0,0,1-.723-.723.723.723,0,1,0-1.446,0,.723.723,0,0,1-.723.723Zm0,0" transform="translate(-88.893)"/>
</svg>
