2018-12-13T11:17:37.2582245+02:00  [WRN] No type was specified for the decimal column '"Amount"' on entity type '"OrderCustomerQuote"'. This will cause values to be silently truncated if they do not fit in the default precision and scale. Explicitly specify the SQL server column type that can accommodate all the values using 'ForHasColumnType()'. (b5b4253a)
2018-12-13T11:17:37.2680578+02:00  [WRN] No type was specified for the decimal column '"Qty"' on entity type '"OrderCustomerQuote"'. This will cause values to be silently truncated if they do not fit in the default precision and scale. Explicitly specify the SQL server column type that can accommodate all the values using 'ForHasColumnType()'. (b5b4253a)
2018-12-13T11:17:37.2739729+02:00  [WRN] No type was specified for the decimal column '"TotalAmount"' on entity type '"OrderCustomerQuote"'. This will cause values to be silently truncated if they do not fit in the default precision and scale. Explicitly specify the SQL server column type that can accommodate all the values using 'ForHasColumnType()'. (b5b4253a)
2018-12-13T11:17:37.2816360+02:00  [WRN] No type was specified for the decimal column '"Amount"' on entity type '"OrderVendorQuote"'. This will cause values to be silently truncated if they do not fit in the default precision and scale. Explicitly specify the SQL server column type that can accommodate all the values using 'ForHasColumnType()'. (b5b4253a)
2018-12-13T11:17:37.2859950+02:00  [WRN] No type was specified for the decimal column '"Qty"' on entity type '"OrderVendorQuote"'. This will cause values to be silently truncated if they do not fit in the default precision and scale. Explicitly specify the SQL server column type that can accommodate all the values using 'ForHasColumnType()'. (b5b4253a)
2018-12-13T11:17:37.2900308+02:00  [WRN] No type was specified for the decimal column '"TotalAmount"' on entity type '"OrderVendorQuote"'. This will cause values to be silently truncated if they do not fit in the default precision and scale. Explicitly specify the SQL server column type that can accommodate all the values using 'ForHasColumnType()'. (b5b4253a)
2018-12-13T11:17:37.2947373+02:00  [WRN] No type was specified for the decimal column '"Qty"' on entity type '"Order"'. This will cause values to be silently truncated if they do not fit in the default precision and scale. Explicitly specify the SQL server column type that can accommodate all the values using 'ForHasColumnType()'. (b5b4253a)
2018-12-13T11:17:37.4516597+02:00  [INF] Entity Framework Core "2.1.4-rtm-31024" initialized '"ApplicationDbContext"' using provider '"Microsoft.EntityFrameworkCore.SqlServer"' with options: "MigrationsAssembly=Regency.DataAccess " (9958f5bb)
2018-12-13T11:17:38.4116861+02:00  [INF] Executed DbCommand ("107"ms) [Parameters=["@__role_0='?' (Size = 256)"], CommandType='Text', CommandTimeout='30']"
""SELECT CASE
    WHEN EXISTS (
        SELECT 1
        FROM [AspNetRoles] AS [r]
        WHERE [r].[Name] = @__role_0)
    THEN CAST(1 AS BIT) ELSE CAST(0 AS BIT)
END" (0723d8ff)
2018-12-13T11:17:38.4827997+02:00  [INF] Executed DbCommand ("4"ms) [Parameters=["@__role_0='?' (Size = 256)"], CommandType='Text', CommandTimeout='30']"
""SELECT CASE
    WHEN EXISTS (
        SELECT 1
        FROM [AspNetRoles] AS [r]
        WHERE [r].[Name] = @__role_0)
    THEN CAST(1 AS BIT) ELSE CAST(0 AS BIT)
END" (0723d8ff)
2018-12-13T11:17:38.5015567+02:00  [INF] Executed DbCommand ("1"ms) [Parameters=["@__user_UserName_0='?' (Size = 256)"], CommandType='Text', CommandTimeout='30']"
""SELECT CASE
    WHEN EXISTS (
        SELECT 1
        FROM [AspNetUsers] AS [u]
        WHERE [u].[UserName] = @__user_UserName_0)
    THEN CAST(1 AS BIT) ELSE CAST(0 AS BIT)
END" (0723d8ff)
2018-12-13T11:17:38.6454296+02:00  [INF] Executed DbCommand ("22"ms) [Parameters=["@__normalizedEmail_0='?' (Size = 256)"], CommandType='Text', CommandTimeout='30']"
""SELECT TOP(1) [u].[Id], [u].[AccessFailedCount], [u].[ConcurrencyStamp], [u].[Email], [u].[EmailConfirmed], [u].[FirstName], [u].[LastName], [u].[LockoutEnabled], [u].[LockoutEnd], [u].[NormalizedEmail], [u].[NormalizedUserName], [u].[PasswordHash], [u].[PhoneNumber], [u].[PhoneNumberConfirmed], [u].[SecurityStamp], [u].[Status], [u].[TwoFactorEnabled], [u].[UserName]
FROM [AspNetUsers] AS [u]
WHERE [u].[NormalizedEmail] = @__normalizedEmail_0" (0723d8ff)
2018-12-13T11:17:38.7911733+02:00  [INF] Executed DbCommand ("10"ms) [Parameters=["@__normalizedRoleName_0='?' (Size = 256)"], CommandType='Text', CommandTimeout='30']"
""SELECT TOP(2) [r].[Id], [r].[ConcurrencyStamp], [r].[Name], [r].[NormalizedName]
FROM [AspNetRoles] AS [r]
WHERE [r].[NormalizedName] = @__normalizedRoleName_0" (0723d8ff)
2018-12-13T11:17:38.8867984+02:00  [INF] Executed DbCommand ("1"ms) [Parameters=["@__get_Item_0='?' (Size = 450), @__get_Item_1='?' (Size = 450)"], CommandType='Text', CommandTimeout='30']"
""SELECT TOP(1) [e].[UserId], [e].[RoleId]
FROM [AspNetUserRoles] AS [e]
WHERE ([e].[UserId] = @__get_Item_0) AND ([e].[RoleId] = @__get_Item_1)" (0723d8ff)
2018-12-13T11:17:38.9515278+02:00  [WRN] User "9c4989af-de13-4852-9fa8-d5a40d851a75" is already in role "Admin". (337e5c15)
2018-12-13T11:17:39.4096977+02:00 0HLJ0RFA2ATEC:00000001 [INF] Request starting HTTP/1.1 DEBUG http://localhost:29007/  0 (ca22a1cb)
2018-12-13T11:17:39.4284806+02:00 0HLJ0RFA2ATED:00000001 [INF] Request starting HTTP/1.1 GET http://localhost:29007/   (ca22a1cb)
2018-12-13T11:17:39.5064697+02:00 0HLJ0RFA2ATEC:00000001 [INF] Request finished in 121.8036ms 200  (791a596a)
2018-12-13T11:17:40.1217222+02:00 0HLJ0RFA2ATED:00000001 [INF] Request finished in 609.3729ms 404  (791a596a)
2018-12-13T11:23:20.5044235+02:00 0HLJ0RFA2ATEF:00000001 [INF] Request starting HTTP/1.1 OPTIONS http://localhost:29007/api/Customer/GetAll   (ca22a1cb)
2018-12-13T11:23:20.5146892+02:00 0HLJ0RFA2ATEG:00000001 [INF] Request starting HTTP/1.1 OPTIONS http://localhost:29007/api/Project/GetAllActive   (ca22a1cb)
2018-12-13T11:23:20.5485747+02:00 0HLJ0RFA2ATEF:00000001 [INF] Policy execution successful. (0204925d)
2018-12-13T11:23:20.5515584+02:00 0HLJ0RFA2ATEG:00000001 [INF] Policy execution successful. (0204925d)
2018-12-13T11:23:20.5541524+02:00 0HLJ0RFA2ATEE:00000001 [INF] Request starting HTTP/1.1 OPTIONS http://localhost:29007/api/Project/GetProjectManager   (ca22a1cb)
2018-12-13T11:23:20.5583924+02:00 0HLJ0RFA2ATEE:00000001 [INF] Policy execution successful. (0204925d)
2018-12-13T11:23:20.5768014+02:00 0HLJ0RFA2ATEF:00000001 [INF] Request finished in 84.4361ms 204  (791a596a)
2018-12-13T11:23:20.5879126+02:00 0HLJ0RFA2ATEE:00000001 [INF] Request finished in 84.4358ms 204  (791a596a)
2018-12-13T11:23:20.5935106+02:00 0HLJ0RFA2ATEG:00000001 [INF] Request finished in 84.4361ms 204  (791a596a)
2018-12-13T11:23:20.7452956+02:00 0HLJ0RFA2ATEF:00000002 [INF] Request starting HTTP/1.1 GET http://localhost:29007/api/Project/GetAllActive   (ca22a1cb)
2018-12-13T11:23:20.7672288+02:00 0HLJ0RFA2ATEF:00000002 [INF] Policy execution successful. (0204925d)
2018-12-13T11:23:20.8334227+02:00 0HLJ0RFA2ATEG:00000002 [INF] Request starting HTTP/1.1 GET http://localhost:29007/api/Customer/GetAll   (ca22a1cb)
2018-12-13T11:23:20.8402152+02:00 0HLJ0RFA2ATEE:00000002 [INF] Request starting HTTP/1.1 GET http://localhost:29007/api/Project/GetProjectManager   (ca22a1cb)
2018-12-13T11:23:20.8408823+02:00 0HLJ0RFA2ATEG:00000002 [INF] Policy execution successful. (0204925d)
2018-12-13T11:23:20.8457133+02:00 0HLJ0RFA2ATEE:00000002 [INF] Policy execution successful. (0204925d)
2018-12-13T11:23:22.0215759+02:00 0HLJ0RFA2ATEE:00000002 [INF] Failed to validate the token "eyJhbGciOiJIUzI1NiIsInR5cCI6IkpXVCJ9.eyJzdWIiOiJhZG1pbkBhZG1pbi5jb20iLCJqdGkiOiI5OTAxOTNkYi1lNDljLTQ4Y2EtOTI1Zi1iMTgwZGI0MGE5NDAiLCJpYXQiOjE1NDQ0MzAwNzAsImh0dHA6Ly9zY2hlbWFzLnhtbHNvYXAub3JnL3dzLzIwMDUvMDUvaWRlbnRpdHkvY2xhaW1zL25hbWUiOiJhZG1pbkBhZG1pbi5jb20iLCJpZCI6IjljNDk4OWFmLWRlMTMtNDg1Mi05ZmE4LWQ1YTQwZDg1MWE3NSIsInJvbGUiOiJBZG1pbiIsIm5iZiI6MTU0NDQzMDA2OSwiZXhwIjoxNTQ0NTE2NDY5LCJpc3MiOiJ3ZWJBcGkiLCJhdWQiOiJhdWQifQ.DD-hrM7JK7svX9p1kkCIppeAPU8i5OjxF8aAw-8eVxA". (f3081a27)
Microsoft.IdentityModel.Tokens.SecurityTokenExpiredException: IDX10223: Lifetime validation failed. The token is expired. ValidTo: '[PII is hidden]', Current time: '[PII is hidden]'.
   at Microsoft.IdentityModel.Tokens.Validators.ValidateLifetime(Nullable`1 notBefore, Nullable`1 expires, SecurityToken securityToken, TokenValidationParameters validationParameters) in C:\agent2\_work\56\s\src\Microsoft.IdentityModel.Tokens\Validators.cs:line 274
   at System.IdentityModel.Tokens.Jwt.JwtSecurityTokenHandler.ValidateLifetime(Nullable`1 notBefore, Nullable`1 expires, JwtSecurityToken jwtToken, TokenValidationParameters validationParameters) in C:\agent2\_work\56\s\src\System.IdentityModel.Tokens.Jwt\JwtSecurityTokenHandler.cs:line 1178
   at System.IdentityModel.Tokens.Jwt.JwtSecurityTokenHandler.ValidateTokenPayload(JwtSecurityToken jwtToken, TokenValidationParameters validationParameters) in C:\agent2\_work\56\s\src\System.IdentityModel.Tokens.Jwt\JwtSecurityTokenHandler.cs:line 735
   at Microsoft.AspNetCore.Authentication.JwtBearer.JwtBearerHandler.<HandleAuthenticateAsync>d__6.MoveNext()
2018-12-13T11:23:22.0243730+02:00 0HLJ0RFA2ATEG:00000002 [INF] Failed to validate the token "eyJhbGciOiJIUzI1NiIsInR5cCI6IkpXVCJ9.eyJzdWIiOiJhZG1pbkBhZG1pbi5jb20iLCJqdGkiOiI5OTAxOTNkYi1lNDljLTQ4Y2EtOTI1Zi1iMTgwZGI0MGE5NDAiLCJpYXQiOjE1NDQ0MzAwNzAsImh0dHA6Ly9zY2hlbWFzLnhtbHNvYXAub3JnL3dzLzIwMDUvMDUvaWRlbnRpdHkvY2xhaW1zL25hbWUiOiJhZG1pbkBhZG1pbi5jb20iLCJpZCI6IjljNDk4OWFmLWRlMTMtNDg1Mi05ZmE4LWQ1YTQwZDg1MWE3NSIsInJvbGUiOiJBZG1pbiIsIm5iZiI6MTU0NDQzMDA2OSwiZXhwIjoxNTQ0NTE2NDY5LCJpc3MiOiJ3ZWJBcGkiLCJhdWQiOiJhdWQifQ.DD-hrM7JK7svX9p1kkCIppeAPU8i5OjxF8aAw-8eVxA". (f3081a27)
Microsoft.IdentityModel.Tokens.SecurityTokenExpiredException: IDX10223: Lifetime validation failed. The token is expired. ValidTo: '[PII is hidden]', Current time: '[PII is hidden]'.
   at Microsoft.IdentityModel.Tokens.Validators.ValidateLifetime(Nullable`1 notBefore, Nullable`1 expires, SecurityToken securityToken, TokenValidationParameters validationParameters) in C:\agent2\_work\56\s\src\Microsoft.IdentityModel.Tokens\Validators.cs:line 274
   at System.IdentityModel.Tokens.Jwt.JwtSecurityTokenHandler.ValidateLifetime(Nullable`1 notBefore, Nullable`1 expires, JwtSecurityToken jwtToken, TokenValidationParameters validationParameters) in C:\agent2\_work\56\s\src\System.IdentityModel.Tokens.Jwt\JwtSecurityTokenHandler.cs:line 1178
   at System.IdentityModel.Tokens.Jwt.JwtSecurityTokenHandler.ValidateTokenPayload(JwtSecurityToken jwtToken, TokenValidationParameters validationParameters) in C:\agent2\_work\56\s\src\System.IdentityModel.Tokens.Jwt\JwtSecurityTokenHandler.cs:line 735
   at Microsoft.AspNetCore.Authentication.JwtBearer.JwtBearerHandler.<HandleAuthenticateAsync>d__6.MoveNext()
2018-12-13T11:23:22.0709240+02:00 0HLJ0RFA2ATEE:00000002 [INF] "Bearer" was not authenticated. Failure message: "IDX10223: Lifetime validation failed. The token is expired. ValidTo: '[PII is hidden]', Current time: '[PII is hidden]'." (48071232)
2018-12-13T11:23:22.0735968+02:00 0HLJ0RFA2ATEF:00000002 [INF] Failed to validate the token "eyJhbGciOiJIUzI1NiIsInR5cCI6IkpXVCJ9.eyJzdWIiOiJhZG1pbkBhZG1pbi5jb20iLCJqdGkiOiI5OTAxOTNkYi1lNDljLTQ4Y2EtOTI1Zi1iMTgwZGI0MGE5NDAiLCJpYXQiOjE1NDQ0MzAwNzAsImh0dHA6Ly9zY2hlbWFzLnhtbHNvYXAub3JnL3dzLzIwMDUvMDUvaWRlbnRpdHkvY2xhaW1zL25hbWUiOiJhZG1pbkBhZG1pbi5jb20iLCJpZCI6IjljNDk4OWFmLWRlMTMtNDg1Mi05ZmE4LWQ1YTQwZDg1MWE3NSIsInJvbGUiOiJBZG1pbiIsIm5iZiI6MTU0NDQzMDA2OSwiZXhwIjoxNTQ0NTE2NDY5LCJpc3MiOiJ3ZWJBcGkiLCJhdWQiOiJhdWQifQ.DD-hrM7JK7svX9p1kkCIppeAPU8i5OjxF8aAw-8eVxA". (f3081a27)
Microsoft.IdentityModel.Tokens.SecurityTokenExpiredException: IDX10223: Lifetime validation failed. The token is expired. ValidTo: '[PII is hidden]', Current time: '[PII is hidden]'.
   at Microsoft.IdentityModel.Tokens.Validators.ValidateLifetime(Nullable`1 notBefore, Nullable`1 expires, SecurityToken securityToken, TokenValidationParameters validationParameters) in C:\agent2\_work\56\s\src\Microsoft.IdentityModel.Tokens\Validators.cs:line 274
   at System.IdentityModel.Tokens.Jwt.JwtSecurityTokenHandler.ValidateLifetime(Nullable`1 notBefore, Nullable`1 expires, JwtSecurityToken jwtToken, TokenValidationParameters validationParameters) in C:\agent2\_work\56\s\src\System.IdentityModel.Tokens.Jwt\JwtSecurityTokenHandler.cs:line 1178
   at System.IdentityModel.Tokens.Jwt.JwtSecurityTokenHandler.ValidateTokenPayload(JwtSecurityToken jwtToken, TokenValidationParameters validationParameters) in C:\agent2\_work\56\s\src\System.IdentityModel.Tokens.Jwt\JwtSecurityTokenHandler.cs:line 735
   at Microsoft.AspNetCore.Authentication.JwtBearer.JwtBearerHandler.<HandleAuthenticateAsync>d__6.MoveNext()
2018-12-13T11:23:22.0772545+02:00 0HLJ0RFA2ATEF:00000002 [INF] "Bearer" was not authenticated. Failure message: "IDX10223: Lifetime validation failed. The token is expired. ValidTo: '[PII is hidden]', Current time: '[PII is hidden]'." (48071232)
2018-12-13T11:23:22.0811448+02:00 0HLJ0RFA2ATEG:00000002 [INF] "Bearer" was not authenticated. Failure message: "IDX10223: Lifetime validation failed. The token is expired. ValidTo: '[PII is hidden]', Current time: '[PII is hidden]'." (48071232)
2018-12-13T11:23:22.1861807+02:00 0HLJ0RFA2ATEG:00000002 [INF] Authorization failed for user: null. (a4ab1676)
2018-12-13T11:23:22.2374097+02:00 0HLJ0RFA2ATEF:00000002 [INF] Executing action method "Regency.Api.Controllers.ProjectController.GetAllActive (Regency.Api)" with arguments (null) - ModelState is Valid (ba7f4ac2)
2018-12-13T11:23:22.2387115+02:00 0HLJ0RFA2ATEE:00000002 [INF] Executing action method "Regency.Api.Controllers.ProjectController.GetProjectManager (Regency.Api)" with arguments (null) - ModelState is Valid (ba7f4ac2)
2018-12-13T11:23:22.2402993+02:00 0HLJ0RFA2ATEG:00000002 [INF] Authorization failed for the request at filter '"Microsoft.AspNetCore.Mvc.Authorization.AuthorizeFilter"'. (8b6446cb)
2018-12-13T11:23:22.4298407+02:00 0HLJ0RFA2ATEG:00000002 [INF] Executing ChallengeResult with authentication schemes ([]). (f3dca807)
2018-12-13T11:23:22.4328741+02:00 0HLJ0RFA2ATEE:00000002 [INF] Class executed: UserRepository; Method executed: MoveNext (dbdb5e4c)
2018-12-13T11:23:22.4375756+02:00 0HLJ0RFA2ATEF:00000002 [INF] Class executed: ProjectRepository; Method executed: MoveNext; (f5647d53)
2018-12-13T11:23:22.4522472+02:00 0HLJ0RFA2ATEG:00000002 [INF] AuthenticationScheme: "Bearer" was challenged. (d45f1f38)
2018-12-13T11:23:22.4594841+02:00 0HLJ0RFA2ATEG:00000002 [INF] Executed action "Regency.Api.Controllers.CustomerController.GetAll (Regency.Api)" in 316.1421ms (afa2e885)
2018-12-13T11:23:22.4784170+02:00 0HLJ0RFA2ATEG:00000002 [INF] Request finished in 1736.9185ms 401  (791a596a)
2018-12-13T11:23:22.6489744+02:00 0HLJ0RFA2ATEE:00000002 [INF] Executing ObjectResult, writing value "Microsoft.AspNetCore.Mvc.ControllerContext". (4e968210)
2018-12-13T11:23:22.6704112+02:00 0HLJ0RFA2ATEF:00000002 [INF] Executing ObjectResult, writing value "Microsoft.AspNetCore.Mvc.ControllerContext". (4e968210)
2018-12-13T11:23:22.7489883+02:00 0HLJ0RFA2ATEE:00000002 [INF] Executed action "Regency.Api.Controllers.ProjectController.GetProjectManager (Regency.Api)" in 606.2845ms (afa2e885)
2018-12-13T11:23:22.7776296+02:00 0HLJ0RFA2ATEF:00000002 [INF] Executed action "Regency.Api.Controllers.ProjectController.GetAllActive (Regency.Api)" in 613.046ms (afa2e885)
2018-12-13T11:23:22.7796773+02:00 0HLJ0RFA2ATEE:00000002 [INF] Request finished in 2027.1514ms 200 application/json; charset=utf-8 (791a596a)
2018-12-13T11:23:22.8052638+02:00 0HLJ0RFA2ATEF:00000002 [INF] Request finished in 2061.5367ms 200 application/json; charset=utf-8 (791a596a)
2018-12-13T11:23:45.4771373+02:00 0HLJ0RFA2ATEG:00000003 [INF] Request starting HTTP/1.1 OPTIONS http://localhost:29007/api/account/login   (ca22a1cb)
2018-12-13T11:23:45.4816214+02:00 0HLJ0RFA2ATEG:00000003 [INF] Policy execution successful. (0204925d)
2018-12-13T11:23:45.4895042+02:00 0HLJ0RFA2ATEG:00000003 [INF] Request finished in 8.7484ms 204  (791a596a)
2018-12-13T11:23:45.5172232+02:00 0HLJ0RFA2ATEE:00000003 [INF] Request starting HTTP/1.1 POST http://localhost:29007/api/account/login application/json 49 (ca22a1cb)
2018-12-13T11:23:45.5410581+02:00 0HLJ0RFA2ATEE:00000003 [INF] Policy execution successful. (0204925d)
2018-12-13T11:23:45.6610449+02:00 0HLJ0RFA2ATEE:00000003 [INF] Executing action method "Regency.Api.Controllers.AccountController.Login (Regency.Api)" with arguments (["Regency.ViewModels.Account.CredentialsViewModel"]) - ModelState is Valid (ba7f4ac2)
2018-12-13T11:23:45.6865427+02:00 0HLJ0RFA2ATEE:00000003 [INF] Login (b4b94446)
2018-12-13T11:23:45.7104714+02:00 0HLJ0RFA2ATEE:00000003 [WRN] Login (b4b94446)
2018-12-13T11:23:45.7216100+02:00 0HLJ0RFA2ATEE:00000003 [INF] Entity Framework Core "2.1.4-rtm-31024" initialized '"ApplicationDbContext"' using provider '"Microsoft.EntityFrameworkCore.SqlServer"' with options: "MigrationsAssembly=Regency.DataAccess " (9958f5bb)
2018-12-13T11:23:45.7328371+02:00 0HLJ0RFA2ATEE:00000003 [INF] Executed DbCommand ("2"ms) [Parameters=["@__normalizedUserName_0='?' (Size = 256)"], CommandType='Text', CommandTimeout='30']"
""SELECT TOP(1) [u].[Id], [u].[AccessFailedCount], [u].[ConcurrencyStamp], [u].[Email], [u].[EmailConfirmed], [u].[FirstName], [u].[LastName], [u].[LockoutEnabled], [u].[LockoutEnd], [u].[NormalizedEmail], [u].[NormalizedUserName], [u].[PasswordHash], [u].[PhoneNumber], [u].[PhoneNumberConfirmed], [u].[SecurityStamp], [u].[Status], [u].[TwoFactorEnabled], [u].[UserName]
FROM [AspNetUsers] AS [u]
WHERE [u].[NormalizedUserName] = @__normalizedUserName_0" (0723d8ff)
2018-12-13T11:23:45.8447817+02:00 0HLJ0RFA2ATEE:00000003 [INF] Executed DbCommand ("1"ms) [Parameters=["@__userId_0='?' (Size = 450)"], CommandType='Text', CommandTimeout='30']"
""SELECT [role].[Name]
FROM [AspNetUserRoles] AS [userRole]
INNER JOIN [AspNetRoles] AS [role] ON [userRole].[RoleId] = [role].[Id]
WHERE [userRole].[UserId] = @__userId_0" (0723d8ff)
2018-12-13T11:23:45.9254693+02:00 0HLJ0RFA2ATEE:00000003 [INF] Executing ObjectResult, writing value "Microsoft.AspNetCore.Mvc.ControllerContext". (4e968210)
2018-12-13T11:23:45.9302652+02:00 0HLJ0RFA2ATEE:00000003 [INF] Executed action "Regency.Api.Controllers.AccountController.Login (Regency.Api)" in 369.6923ms (afa2e885)
2018-12-13T11:23:45.9381305+02:00 0HLJ0RFA2ATEE:00000003 [INF] Request finished in 443.7599ms 200 text/plain; charset=utf-8 (791a596a)
2018-12-13T11:23:47.5620481+02:00 0HLJ0RFA2ATEF:00000003 [INF] Request starting HTTP/1.1 OPTIONS http://localhost:29007/api/Customer/GetAll   (ca22a1cb)
2018-12-13T11:23:47.5661514+02:00 0HLJ0RFA2ATEF:00000003 [INF] Policy execution successful. (0204925d)
2018-12-13T11:23:47.5852830+02:00 0HLJ0RFA2ATEF:00000003 [INF] Request finished in 30.511ms 204  (791a596a)
2018-12-13T11:23:47.5964435+02:00 0HLJ0RFA2ATEG:00000004 [INF] Request starting HTTP/1.1 OPTIONS http://localhost:29007/api/Project/GetAllActive   (ca22a1cb)
2018-12-13T11:23:47.6011526+02:00 0HLJ0RFA2ATEG:00000004 [INF] Policy execution successful. (0204925d)
2018-12-13T11:23:47.6083755+02:00 0HLJ0RFA2ATEE:00000004 [INF] Request starting HTTP/1.1 OPTIONS http://localhost:29007/api/Project/GetProjectManager   (ca22a1cb)
2018-12-13T11:23:47.6182415+02:00 0HLJ0RFA2ATEG:00000004 [INF] Request finished in 64.3188ms 204  (791a596a)
2018-12-13T11:23:47.6231064+02:00 0HLJ0RFA2ATEE:00000004 [INF] Policy execution successful. (0204925d)
2018-12-13T11:23:47.6292831+02:00 0HLJ0RFA2ATEE:00000004 [INF] Request finished in 84.2763ms 204  (791a596a)
2018-12-13T11:23:47.6769394+02:00 0HLJ0RFA2ATEF:00000004 [INF] Request starting HTTP/1.1 GET http://localhost:29007/api/Customer/GetAll   (ca22a1cb)
2018-12-13T11:23:47.7262151+02:00 0HLJ0RFA2ATEG:00000005 [INF] Request starting HTTP/1.1 GET http://localhost:29007/api/Project/GetAllActive   (ca22a1cb)
2018-12-13T11:23:47.7283776+02:00 0HLJ0RFA2ATEF:00000004 [INF] Policy execution successful. (0204925d)
2018-12-13T11:23:47.7523881+02:00 0HLJ0RFA2ATEE:00000005 [INF] Request starting HTTP/1.1 GET http://localhost:29007/api/Project/GetProjectManager   (ca22a1cb)
2018-12-13T11:23:47.8061753+02:00 0HLJ0RFA2ATEE:00000005 [INF] Policy execution successful. (0204925d)
2018-12-13T11:23:47.8085688+02:00 0HLJ0RFA2ATEG:00000005 [INF] Policy execution successful. (0204925d)
2018-12-13T11:23:47.8979157+02:00 0HLJ0RFA2ATEF:00000004 [INF] Successfully validated the token. (60169667)
2018-12-13T11:23:47.8987866+02:00 0HLJ0RFA2ATEG:00000005 [INF] Successfully validated the token. (60169667)
2018-12-13T11:23:47.9018696+02:00 0HLJ0RFA2ATEE:00000005 [INF] Successfully validated the token. (60169667)
2018-12-13T11:23:47.9107937+02:00 0HLJ0RFA2ATEF:00000004 [INF] Authorization was successful for user: "admin@admin.com". (d7eb274a)
2018-12-13T11:23:47.9659628+02:00 0HLJ0RFA2ATEE:00000005 [INF] Executing action method "Regency.Api.Controllers.ProjectController.GetProjectManager (Regency.Api)" with arguments (null) - ModelState is Valid (ba7f4ac2)
2018-12-13T11:23:48.0175148+02:00 0HLJ0RFA2ATEE:00000005 [INF] Class executed: UserRepository; Method executed: MoveNext (dbdb5e4c)
2018-12-13T11:23:48.0198891+02:00 0HLJ0RFA2ATEG:00000005 [INF] Executing action method "Regency.Api.Controllers.ProjectController.GetAllActive (Regency.Api)" with arguments (null) - ModelState is Valid (ba7f4ac2)
2018-12-13T11:23:48.0707584+02:00 0HLJ0RFA2ATEF:00000004 [INF] Executing action method "Regency.Api.Controllers.CustomerController.GetAll (Regency.Api)" with arguments (null) - ModelState is Valid (ba7f4ac2)
2018-12-13T11:23:48.0933830+02:00 0HLJ0RFA2ATEG:00000005 [INF] Class executed: ProjectRepository; Method executed: MoveNext; (f5647d53)
2018-12-13T11:23:48.1007278+02:00 0HLJ0RFA2ATEE:00000005 [INF] Executing ObjectResult, writing value "Microsoft.AspNetCore.Mvc.ControllerContext". (4e968210)
2018-12-13T11:23:48.1047052+02:00 0HLJ0RFA2ATEE:00000005 [INF] Executed action "Regency.Api.Controllers.ProjectController.GetProjectManager (Regency.Api)" in 187.2301ms (afa2e885)
2018-12-13T11:23:48.1182203+02:00 0HLJ0RFA2ATEE:00000005 [INF] Request finished in 453.9978ms 200 application/json; charset=utf-8 (791a596a)
2018-12-13T11:23:48.1465291+02:00 0HLJ0RFA2ATEF:00000004 [INF] Class executed: CustomerRepository; Method executed: MoveNext; Passed parametr:  (72520cc5)
2018-12-13T11:23:48.1709396+02:00 0HLJ0RFA2ATEG:00000005 [INF] Executing ObjectResult, writing value "Microsoft.AspNetCore.Mvc.ControllerContext". (4e968210)
2018-12-13T11:23:48.1762434+02:00 0HLJ0RFA2ATEG:00000005 [INF] Executed action "Regency.Api.Controllers.ProjectController.GetAllActive (Regency.Api)" in 207.1767ms (afa2e885)
2018-12-13T11:23:48.1848306+02:00 0HLJ0RFA2ATEG:00000005 [INF] Request finished in 525.4519ms 200 application/json; charset=utf-8 (791a596a)
2018-12-13T11:23:48.2081567+02:00 0HLJ0RFA2ATEF:00000004 [INF] Executing ObjectResult, writing value "Microsoft.AspNetCore.Mvc.ControllerContext". (4e968210)
2018-12-13T11:23:48.2212840+02:00 0HLJ0RFA2ATEF:00000004 [INF] Executed action "Regency.Api.Controllers.CustomerController.GetAll (Regency.Api)" in 310.9508ms (afa2e885)
2018-12-13T11:23:48.2310959+02:00 0HLJ0RFA2ATEF:00000004 [INF] Request finished in 570.9559ms 200 application/json; charset=utf-8 (791a596a)
2018-12-13T11:23:57.6624585+02:00 0HLJ0RFA2ATEE:00000006 [INF] Request starting HTTP/1.1 OPTIONS http://localhost:29007/api/Project/GetProjectManager   (ca22a1cb)
2018-12-13T11:23:57.6671024+02:00 0HLJ0RFA2ATEE:00000006 [INF] Policy execution successful. (0204925d)
2018-12-13T11:23:57.7204910+02:00 0HLJ0RFA2ATEF:00000005 [INF] Request starting HTTP/1.1 OPTIONS http://localhost:29007/api/Customer/GetAll   (ca22a1cb)
2018-12-13T11:23:57.7433223+02:00 0HLJ0RFA2ATEE:00000006 [INF] Request finished in 16.5727ms 204  (791a596a)
2018-12-13T11:23:57.7517522+02:00 0HLJ0RFA2ATEF:00000005 [INF] Policy execution successful. (0204925d)
2018-12-13T11:23:57.8006915+02:00 0HLJ0RFA2ATEE:00000007 [INF] Request starting HTTP/1.1 GET http://localhost:29007/api/Project/GetProjectManager   (ca22a1cb)
2018-12-13T11:23:57.8490836+02:00 0HLJ0RFA2ATEG:00000006 [INF] Request starting HTTP/1.1 OPTIONS http://localhost:29007/api/Project/GetAllActive   (ca22a1cb)
2018-12-13T11:23:57.8708510+02:00 0HLJ0RFA2ATEE:00000007 [INF] Policy execution successful. (0204925d)
2018-12-13T11:23:57.9197493+02:00 0HLJ0RFA2ATEF:00000005 [INF] Request finished in 99.2952ms 204  (791a596a)
2018-12-13T11:23:57.9427075+02:00 0HLJ0RFA2ATEE:00000007 [INF] Successfully validated the token. (60169667)
2018-12-13T11:23:57.9649377+02:00 0HLJ0RFA2ATEG:00000006 [INF] Policy execution successful. (0204925d)
2018-12-13T11:23:58.0000921+02:00 0HLJ0RFA2ATEG:00000006 [INF] Request finished in 313.239ms 204  (791a596a)
2018-12-13T11:23:58.0019478+02:00 0HLJ0RFA2ATEE:00000007 [INF] Executing action method "Regency.Api.Controllers.ProjectController.GetProjectManager (Regency.Api)" with arguments (null) - ModelState is Valid (ba7f4ac2)
2018-12-13T11:23:58.0340814+02:00 0HLJ0RFA2ATEG:00000007 [INF] Request starting HTTP/1.1 GET http://localhost:29007/api/Project/GetAllActive   (ca22a1cb)
2018-12-13T11:23:58.0600826+02:00 0HLJ0RFA2ATEE:00000007 [INF] Class executed: UserRepository; Method executed: MoveNext (dbdb5e4c)
2018-12-13T11:23:58.0737699+02:00 0HLJ0RFA2ATEG:00000007 [INF] Policy execution successful. (0204925d)
2018-12-13T11:23:58.0912351+02:00 0HLJ0RFA2ATEE:00000007 [INF] Executing ObjectResult, writing value "Microsoft.AspNetCore.Mvc.ControllerContext". (4e968210)
2018-12-13T11:23:58.1459025+02:00 0HLJ0RFA2ATEF:00000006 [INF] Request starting HTTP/1.1 GET http://localhost:29007/api/Customer/GetAll   (ca22a1cb)
2018-12-13T11:23:58.1472319+02:00 0HLJ0RFA2ATEE:00000007 [INF] Executed action "Regency.Api.Controllers.ProjectController.GetProjectManager (Regency.Api)" in 131.4726ms (afa2e885)
2018-12-13T11:23:58.1653316+02:00 0HLJ0RFA2ATEF:00000006 [INF] Policy execution successful. (0204925d)
2018-12-13T11:23:58.1693768+02:00 0HLJ0RFA2ATEF:00000006 [INF] Successfully validated the token. (60169667)
2018-12-13T11:23:58.2348605+02:00 0HLJ0RFA2ATEF:00000006 [INF] Authorization was successful for user: "admin@admin.com". (d7eb274a)
2018-12-13T11:23:58.2593064+02:00 0HLJ0RFA2ATEG:00000007 [INF] Successfully validated the token. (60169667)
2018-12-13T11:23:58.3231445+02:00 0HLJ0RFA2ATEF:00000006 [INF] Executing action method "Regency.Api.Controllers.CustomerController.GetAll (Regency.Api)" with arguments (null) - ModelState is Valid (ba7f4ac2)
2018-12-13T11:23:58.3356610+02:00 0HLJ0RFA2ATEF:00000006 [INF] Class executed: CustomerRepository; Method executed: MoveNext; Passed parametr:  (72520cc5)
2018-12-13T11:23:58.3398681+02:00 0HLJ0RFA2ATEE:00000007 [INF] Request finished in 396.7973ms 200 application/json; charset=utf-8 (791a596a)
2018-12-13T11:23:58.3671908+02:00 0HLJ0RFA2ATEF:00000006 [INF] Executing ObjectResult, writing value "Microsoft.AspNetCore.Mvc.ControllerContext". (4e968210)
2018-12-13T11:23:58.3928899+02:00 0HLJ0RFA2ATEG:00000007 [INF] Executing action method "Regency.Api.Controllers.ProjectController.GetAllActive (Regency.Api)" with arguments (null) - ModelState is Valid (ba7f4ac2)
2018-12-13T11:23:58.4199944+02:00 0HLJ0RFA2ATEG:00000007 [INF] Class executed: ProjectRepository; Method executed: MoveNext; (f5647d53)
2018-12-13T11:23:58.4216902+02:00 0HLJ0RFA2ATEF:00000006 [INF] Executed action "Regency.Api.Controllers.CustomerController.GetAll (Regency.Api)" in 197.8377ms (afa2e885)
2018-12-13T11:23:58.4272933+02:00 0HLJ0RFA2ATEF:00000006 [INF] Request finished in 325.1527ms 200 application/json; charset=utf-8 (791a596a)
2018-12-13T11:23:58.4358965+02:00 0HLJ0RFA2ATEG:00000007 [INF] Executing ObjectResult, writing value "Microsoft.AspNetCore.Mvc.ControllerContext". (4e968210)
2018-12-13T11:23:58.4600704+02:00 0HLJ0RFA2ATEG:00000007 [INF] Executed action "Regency.Api.Controllers.ProjectController.GetAllActive (Regency.Api)" in 176.6639ms (afa2e885)
2018-12-13T11:23:58.4662029+02:00 0HLJ0RFA2ATEG:00000007 [INF] Request finished in 456.3392ms 200 application/json; charset=utf-8 (791a596a)
2018-12-13T11:23:59.0407050+02:00 0HLJ0RFA2ATEH:00000001 [INF] Request starting HTTP/1.1 OPTIONS http://localhost:29007/api/Project/Get/?id=0c312b26-c782-4db4-add4-3f5b4c97073d   (ca22a1cb)
2018-12-13T11:23:59.0871315+02:00 0HLJ0RFA2ATEG:00000008 [INF] Request starting HTTP/1.1 OPTIONS http://localhost:29007/api/ProjectType/GetAll   (ca22a1cb)
2018-12-13T11:23:59.0908836+02:00 0HLJ0RFA2ATEI:00000001 [INF] Request starting HTTP/1.1 OPTIONS http://localhost:29007/api/Order/GetAllOrdersByProjectId/?id=0c312b26-c782-4db4-add4-3f5b4c97073d   (ca22a1cb)
2018-12-13T11:23:59.1139905+02:00 0HLJ0RFA2ATEE:00000008 [INF] Request starting HTTP/1.1 GET http://localhost:29007/api/Project/GetProjectManager   (ca22a1cb)
2018-12-13T11:23:59.1140498+02:00 0HLJ0RFA2ATEJ:00000001 [INF] Request starting HTTP/1.1 OPTIONS http://localhost:29007/api/ProjectAttachment/GetAllByProjectId?id=0c312b26-c782-4db4-add4-3f5b4c97073d   (ca22a1cb)
2018-12-13T11:23:59.1391665+02:00 0HLJ0RFA2ATEH:00000001 [INF] Policy execution successful. (0204925d)
2018-12-13T11:23:59.1587411+02:00 0HLJ0RFA2ATEJ:00000001 [INF] Policy execution successful. (0204925d)
2018-12-13T11:23:59.1740321+02:00 0HLJ0RFA2ATEG:00000008 [INF] Policy execution successful. (0204925d)
2018-12-13T11:23:59.1814795+02:00 0HLJ0RFA2ATEI:00000001 [INF] Policy execution successful. (0204925d)
2018-12-13T11:23:59.2143948+02:00 0HLJ0RFA2ATEJ:00000001 [INF] Request finished in 145.5193ms 204  (791a596a)
2018-12-13T11:23:59.2553741+02:00 0HLJ0RFA2ATEH:00000001 [INF] Request finished in 133.94ms 204  (791a596a)
2018-12-13T11:23:59.2608196+02:00 0HLJ0RFA2ATEE:00000008 [INF] Policy execution successful. (0204925d)
2018-12-13T11:23:59.2729420+02:00 0HLJ0RFA2ATEE:00000008 [INF] Successfully validated the token. (60169667)
2018-12-13T11:23:59.2793422+02:00 0HLJ0RFA2ATEI:00000001 [INF] Request finished in 176.7028ms 204  (791a596a)
2018-12-13T11:23:59.3086534+02:00 0HLJ0RFA2ATEF:00000007 [INF] Request starting HTTP/1.1 GET http://localhost:29007/api/Customer/GetAll   (ca22a1cb)
2018-12-13T11:23:59.3086528+02:00 0HLJ0RFA2ATEG:00000008 [INF] Request finished in 170.0234ms 204  (791a596a)
2018-12-13T11:23:59.3412945+02:00 0HLJ0RFA2ATEH:00000002 [INF] Request starting HTTP/1.1 GET http://localhost:29007/api/Project/Get/?id=0c312b26-c782-4db4-add4-3f5b4c97073d   (ca22a1cb)
2018-12-13T11:23:59.3615722+02:00 0HLJ0RFA2ATEJ:00000002 [INF] Request starting HTTP/1.1 GET http://localhost:29007/api/ProjectAttachment/GetAllByProjectId?id=0c312b26-c782-4db4-add4-3f5b4c97073d   (ca22a1cb)
2018-12-13T11:23:59.3750611+02:00 0HLJ0RFA2ATEG:00000009 [INF] Request starting HTTP/1.1 GET http://localhost:29007/api/ProjectType/GetAll   (ca22a1cb)
2018-12-13T11:23:59.3856073+02:00 0HLJ0RFA2ATEH:00000002 [INF] Policy execution successful. (0204925d)
2018-12-13T11:23:59.4208456+02:00 0HLJ0RFA2ATEI:00000002 [INF] Request starting HTTP/1.1 GET http://localhost:29007/api/Order/GetAllOrdersByProjectId/?id=0c312b26-c782-4db4-add4-3f5b4c97073d   (ca22a1cb)
2018-12-13T11:23:59.4255016+02:00 0HLJ0RFA2ATEE:00000008 [INF] Executing action method "Regency.Api.Controllers.ProjectController.GetProjectManager (Regency.Api)" with arguments (null) - ModelState is Valid (ba7f4ac2)
2018-12-13T11:23:59.4320184+02:00 0HLJ0RFA2ATEJ:00000002 [INF] Policy execution successful. (0204925d)
2018-12-13T11:23:59.4440040+02:00 0HLJ0RFA2ATEG:00000009 [INF] Policy execution successful. (0204925d)
2018-12-13T11:23:59.4584832+02:00 0HLJ0RFA2ATEH:00000002 [INF] Successfully validated the token. (60169667)
2018-12-13T11:23:59.4709760+02:00 0HLJ0RFA2ATEF:00000007 [INF] Policy execution successful. (0204925d)
2018-12-13T11:23:59.4826424+02:00 0HLJ0RFA2ATEJ:00000002 [INF] Successfully validated the token. (60169667)
2018-12-13T11:23:59.4986133+02:00 0HLJ0RFA2ATEG:00000009 [INF] Successfully validated the token. (60169667)
2018-12-13T11:23:59.5093808+02:00 0HLJ0RFA2ATEH:00000002 [INF] Executing action method "Regency.Api.Controllers.ProjectController.Get (Regency.Api)" with arguments (["0c312b26-c782-4db4-add4-3f5b4c97073d"]) - ModelState is Valid (ba7f4ac2)
2018-12-13T11:23:59.5145776+02:00 0HLJ0RFA2ATEI:00000002 [INF] Policy execution successful. (0204925d)
2018-12-13T11:23:59.5317822+02:00 0HLJ0RFA2ATEI:00000002 [INF] Successfully validated the token. (60169667)
2018-12-13T11:23:59.5659245+02:00 0HLJ0RFA2ATEE:00000008 [INF] Class executed: UserRepository; Method executed: MoveNext (dbdb5e4c)
2018-12-13T11:23:59.5837946+02:00 0HLJ0RFA2ATEJ:00000002 [INF] Executed action "Regency.Api.Controllers.ProjectAttachmentController.GetAllByProjectId (Regency.Api)" in 9.3407ms (afa2e885)
2018-12-13T11:23:59.5874423+02:00 0HLJ0RFA2ATEI:00000002 [INF] Executing action method "Regency.Api.Controllers.OrderController.GetAllOrdersByProjectId (Regency.Api)" with arguments (["0c312b26-c782-4db4-add4-3f5b4c97073d"]) - ModelState is Valid (ba7f4ac2)
2018-12-13T11:23:59.6031156+02:00 0HLJ0RFA2ATEE:00000008 [INF] Executing ObjectResult, writing value "Microsoft.AspNetCore.Mvc.ControllerContext". (4e968210)
2018-12-13T11:23:59.6406672+02:00 0HLJ0RFA2ATEG:00000009 [INF] Executing action method "Regency.Api.Controllers.ProjectTypeController.GetAll (Regency.Api)" with arguments (null) - ModelState is Valid (ba7f4ac2)
2018-12-13T11:23:59.6427660+02:00 0HLJ0RFA2ATEH:00000002 [INF] Class executed: ProjectRepository; Method executed: MoveNext; Passed parameter: id=0c312b26-c782-4db4-add4-3f5b4c97073d (7eca62cc)
2018-12-13T11:23:59.6461545+02:00 0HLJ0RFA2ATEF:00000007 [INF] Successfully validated the token. (60169667)
2018-12-13T11:23:59.6783024+02:00 0HLJ0RFA2ATEF:00000007 [INF] Authorization was successful for user: "admin@admin.com". (d7eb274a)
2018-12-13T11:23:59.7134090+02:00 0HLJ0RFA2ATEG:00000009 [INF] Class executed: ProjectTypeRepository; Method executed: MoveNext (603d1cf9)
2018-12-13T11:23:59.7153745+02:00 0HLJ0RFA2ATEI:00000002 [INF] Class executed: OrderRepository; Method executed: MoveNext (bc3778bd)
2018-12-13T11:23:59.7528467+02:00 0HLJ0RFA2ATEH:00000002 [INF] Executing ObjectResult, writing value "Microsoft.AspNetCore.Mvc.ControllerContext". (4e968210)
2018-12-13T11:23:59.8258335+02:00 0HLJ0RFA2ATEG:00000009 [INF] Executing ObjectResult, writing value "Microsoft.AspNetCore.Mvc.ControllerContext". (4e968210)
2018-12-13T11:23:59.9172621+02:00 0HLJ0RFA2ATEJ:00000002 [ERR] An unhandled exception has occurred while executing the request (cf926119)
System.InvalidOperationException: Unable to resolve service for type 'Regency.BusinessLogic.Services.AttachmentService' while attempting to activate 'Regency.Api.Controllers.ProjectAttachmentController'.
   at Microsoft.Extensions.DependencyInjection.ActivatorUtilities.GetService(IServiceProvider sp, Type type, Type requiredBy, Boolean isDefaultParameterRequired)
   at lambda_method(Closure , IServiceProvider , Object[] )
   at Microsoft.AspNetCore.Mvc.Controllers.ControllerActivatorProvider.<>c__DisplayClass4_0.<CreateActivator>b__0(ControllerContext controllerContext)
   at Microsoft.AspNetCore.Mvc.Controllers.ControllerFactoryProvider.<>c__DisplayClass5_0.<CreateControllerFactory>g__CreateController|0(ControllerContext controllerContext)
   at Microsoft.AspNetCore.Mvc.Internal.ControllerActionInvoker.Next(State& next, Scope& scope, Object& state, Boolean& isCompleted)
   at Microsoft.AspNetCore.Mvc.Internal.ControllerActionInvoker.<InvokeInnerFilterAsync>d__14.MoveNext()
--- End of stack trace from previous location where exception was thrown ---
   at System.Runtime.ExceptionServices.ExceptionDispatchInfo.Throw()
   at System.Runtime.CompilerServices.TaskAwaiter.HandleNonSuccessAndDebuggerNotification(Task task)
   at Microsoft.AspNetCore.Mvc.Internal.ResourceInvoker.<InvokeNextResourceFilter>d__22.MoveNext()
--- End of stack trace from previous location where exception was thrown ---
   at System.Runtime.ExceptionServices.ExceptionDispatchInfo.Throw()
   at Microsoft.AspNetCore.Mvc.Internal.ResourceInvoker.Rethrow(ResourceExecutedContext context)
   at Microsoft.AspNetCore.Mvc.Internal.ResourceInvoker.Next(State& next, Scope& scope, Object& state, Boolean& isCompleted)
   at Microsoft.AspNetCore.Mvc.Internal.ResourceInvoker.<InvokeFilterPipelineAsync>d__17.MoveNext()
--- End of stack trace from previous location where exception was thrown ---
   at System.Runtime.ExceptionServices.ExceptionDispatchInfo.Throw()
   at System.Runtime.CompilerServices.TaskAwaiter.HandleNonSuccessAndDebuggerNotification(Task task)
   at Microsoft.AspNetCore.Mvc.Internal.ResourceInvoker.<InvokeAsync>d__15.MoveNext()
--- End of stack trace from previous location where exception was thrown ---
   at System.Runtime.ExceptionServices.ExceptionDispatchInfo.Throw()
   at System.Runtime.CompilerServices.TaskAwaiter.HandleNonSuccessAndDebuggerNotification(Task task)
   at Microsoft.AspNetCore.Builder.RouterMiddleware.<Invoke>d__4.MoveNext()
--- End of stack trace from previous location where exception was thrown ---
   at System.Runtime.ExceptionServices.ExceptionDispatchInfo.Throw()
   at System.Runtime.CompilerServices.TaskAwaiter.HandleNonSuccessAndDebuggerNotification(Task task)
   at Microsoft.AspNetCore.Authentication.AuthenticationMiddleware.<Invoke>d__6.MoveNext()
--- End of stack trace from previous location where exception was thrown ---
   at System.Runtime.ExceptionServices.ExceptionDispatchInfo.Throw()
   at System.Runtime.CompilerServices.TaskAwaiter.HandleNonSuccessAndDebuggerNotification(Task task)
   at Microsoft.AspNetCore.Cors.Infrastructure.CorsMiddleware.<Invoke>d__7.MoveNext()
--- End of stack trace from previous location where exception was thrown ---
   at System.Runtime.ExceptionServices.ExceptionDispatchInfo.Throw()
   at System.Runtime.CompilerServices.TaskAwaiter.HandleNonSuccessAndDebuggerNotification(Task task)
   at Microsoft.AspNetCore.StaticFiles.StaticFileMiddleware.<Invoke>d__7.MoveNext()
--- End of stack trace from previous location where exception was thrown ---
   at System.Runtime.ExceptionServices.ExceptionDispatchInfo.Throw()
   at System.Runtime.CompilerServices.TaskAwaiter.HandleNonSuccessAndDebuggerNotification(Task task)
   at Swashbuckle.AspNetCore.SwaggerUI.SwaggerUIMiddleware.<Invoke>d__5.MoveNext()
--- End of stack trace from previous location where exception was thrown ---
   at System.Runtime.ExceptionServices.ExceptionDispatchInfo.Throw()
   at System.Runtime.CompilerServices.TaskAwaiter.HandleNonSuccessAndDebuggerNotification(Task task)
   at Swashbuckle.AspNetCore.Swagger.SwaggerMiddleware.<Invoke>d__6.MoveNext()
--- End of stack trace from previous location where exception was thrown ---
   at System.Runtime.ExceptionServices.ExceptionDispatchInfo.Throw()
   at System.Runtime.CompilerServices.TaskAwaiter.HandleNonSuccessAndDebuggerNotification(Task task)
   at Microsoft.AspNetCore.Diagnostics.DeveloperExceptionPageMiddleware.<Invoke>d__7.MoveNext()
2018-12-13T11:23:59.9233806+02:00 0HLJ0RFA2ATEE:00000008 [INF] Executed action "Regency.Api.Controllers.ProjectController.GetProjectManager (Regency.Api)" in 330.1295ms (afa2e885)
2018-12-13T11:23:59.9500221+02:00 0HLJ0RFA2ATEG:00000009 [INF] Executed action "Regency.Api.Controllers.ProjectTypeController.GetAll (Regency.Api)" in 327.8477ms (afa2e885)
2018-12-13T11:23:59.9707532+02:00 0HLJ0RFA2ATEI:00000002 [FTL] Sorry, there is no items yet (180a8fd0)
2018-12-13T11:23:59.9808310+02:00 0HLJ0RFA2ATEF:00000007 [INF] Executing action method "Regency.Api.Controllers.CustomerController.GetAll (Regency.Api)" with arguments (null) - ModelState is Valid (ba7f4ac2)
2018-12-13T11:23:59.9930489+02:00 0HLJ0RFA2ATEF:00000007 [INF] Class executed: CustomerRepository; Method executed: MoveNext; Passed parametr:  (72520cc5)
2018-12-13T11:23:59.9945820+02:00 0HLJ0RFA2ATEH:00000002 [INF] Executed action "Regency.Api.Controllers.ProjectController.Get (Regency.Api)" in 412.9995ms (afa2e885)
2018-12-13T11:24:00.0558771+02:00 0HLJ0RFA2ATEI:00000002 [INF] Executing ObjectResult, writing value "Microsoft.AspNetCore.Mvc.ControllerContext". (4e968210)
2018-12-13T11:24:00.0783062+02:00 0HLJ0RFA2ATEH:00000002 [INF] Request finished in 670.5566ms 200 application/json; charset=utf-8 (791a596a)
2018-12-13T11:24:00.1160343+02:00 0HLJ0RFA2ATEG:00000009 [INF] Request finished in 632.7279ms 200 application/json; charset=utf-8 (791a596a)
2018-12-13T11:24:00.1199913+02:00 0HLJ0RFA2ATEE:00000008 [INF] Request finished in 928.5444ms 200 application/json; charset=utf-8 (791a596a)
2018-12-13T11:24:00.1662302+02:00 0HLJ0RFA2ATEF:00000007 [INF] Executing ObjectResult, writing value "Microsoft.AspNetCore.Mvc.ControllerContext". (4e968210)
2018-12-13T11:24:00.1692575+02:00 0HLJ0RFA2ATEI:00000002 [INF] Executed action "Regency.Api.Controllers.OrderController.GetAllOrdersByProjectId (Regency.Api)" in 520.8682ms (afa2e885)
2018-12-13T11:24:00.1819480+02:00 0HLJ0RFA2ATEF:00000007 [INF] Executed action "Regency.Api.Controllers.CustomerController.GetAll (Regency.Api)" in 522.7309ms (afa2e885)
2018-12-13T11:24:00.2581825+02:00 0HLJ0RFA2ATEI:00000002 [INF] Request finished in 818.3127ms 400 text/plain; charset=utf-8 (791a596a)
2018-12-13T11:24:00.2822888+02:00 0HLJ0RFA2ATEF:00000007 [INF] Request finished in 1178.0117ms 200 application/json; charset=utf-8 (791a596a)
2018-12-13T11:24:00.2842191+02:00 0HLJ0RFA2ATEJ:00000002 [INF] Request finished in 1011.2967ms 500 text/html; charset=utf-8 (791a596a)
2018-12-13T11:24:04.9173483+02:00 0HLJ0RFA2ATEE:00000009 [INF] Request starting HTTP/1.1 OPTIONS http://localhost:29007/api/Order/GetAll   (ca22a1cb)
2018-12-13T11:24:04.9216696+02:00 0HLJ0RFA2ATEE:00000009 [INF] Policy execution successful. (0204925d)
2018-12-13T11:24:04.9273495+02:00 0HLJ0RFA2ATEE:00000009 [INF] Request finished in 9.1727ms 204  (791a596a)
2018-12-13T11:24:04.9388093+02:00 0HLJ0RFA2ATEG:0000000A [INF] Request starting HTTP/1.1 GET http://localhost:29007/api/Order/GetAll   (ca22a1cb)
2018-12-13T11:24:04.9444410+02:00 0HLJ0RFA2ATEG:0000000A [INF] Policy execution successful. (0204925d)
2018-12-13T11:24:04.9513434+02:00 0HLJ0RFA2ATEG:0000000A [INF] Successfully validated the token. (60169667)
2018-12-13T11:24:04.9773294+02:00 0HLJ0RFA2ATEG:0000000A [INF] Executing action method "Regency.Api.Controllers.OrderController.GetAll (Regency.Api)" with arguments (null) - ModelState is Valid (ba7f4ac2)
2018-12-13T11:24:05.0046452+02:00 0HLJ0RFA2ATEG:0000000A [INF] Class executed: OrderRepository; Method executed: MoveNext (bc3778bd)
2018-12-13T11:24:05.0634351+02:00 0HLJ0RFA2ATEG:0000000A [INF] Executing ObjectResult, writing value "Microsoft.AspNetCore.Mvc.ControllerContext". (4e968210)
2018-12-13T11:24:05.0799919+02:00 0HLJ0RFA2ATEG:0000000A [INF] Executed action "Regency.Api.Controllers.OrderController.GetAll (Regency.Api)" in 120.0736ms (afa2e885)
2018-12-13T11:24:05.1068681+02:00 0HLJ0RFA2ATEG:0000000A [INF] Request finished in 145.2589ms 200 application/json; charset=utf-8 (791a596a)
2018-12-13T11:24:06.1634806+02:00 0HLJ0RFA2ATEH:00000003 [INF] Request starting HTTP/1.1 OPTIONS http://localhost:29007/api/Order/Update   (ca22a1cb)
2018-12-13T11:24:06.1685968+02:00 0HLJ0RFA2ATEH:00000003 [INF] Policy execution successful. (0204925d)
2018-12-13T11:24:06.1768394+02:00 0HLJ0RFA2ATEH:00000003 [INF] Request finished in 10.5705ms 204  (791a596a)
2018-12-13T11:24:06.1896116+02:00 0HLJ0RFA2ATEI:00000003 [INF] Request starting HTTP/1.1 POST http://localhost:29007/api/Order/Update application/json 354 (ca22a1cb)
2018-12-13T11:24:06.2140079+02:00 0HLJ0RFA2ATEI:00000003 [INF] Policy execution successful. (0204925d)
2018-12-13T11:24:06.2182935+02:00 0HLJ0RFA2ATEI:00000003 [INF] Successfully validated the token. (60169667)
2018-12-13T11:24:06.2396979+02:00 0HLJ0RFA2ATEI:00000003 [INF] Executing action method "Regency.Api.Controllers.OrderController.Update (Regency.Api)" with arguments (["Regency.ViewModels.Order.Post.UpdateOrderView"]) - ModelState is Valid (ba7f4ac2)
2018-12-13T11:24:06.2505864+02:00 0HLJ0RFA2ATEI:00000003 [INF] Class executed: OrderRepository; Method executed: MoveNext; Passed parametr: d82f52cf-750f-4a93-9558-a1b627e07ccd (9b78c796)
2018-12-13T11:24:06.3001740+02:00 0HLJ0RFA2ATEI:00000003 [INF] Class executed: OrderRepository; Method executed: MoveNext; Passed parametr: Regency.Entities.Entities.Regency.Entities.Entities.Order (7ffdd7a9)
2018-12-13T11:24:06.3296105+02:00 0HLJ0RFA2ATEI:00000003 [INF] Executing HttpStatusCodeResult, setting HTTP status code 200 (e28ccfae)
2018-12-13T11:24:06.3331923+02:00 0HLJ0RFA2ATEI:00000003 [INF] Executed action "Regency.Api.Controllers.OrderController.Update (Regency.Api)" in 108.3856ms (afa2e885)
2018-12-13T11:24:06.3379750+02:00 0HLJ0RFA2ATEI:00000003 [INF] Request finished in 149.0446ms 200  (791a596a)
2018-12-13T11:24:07.8336883+02:00 0HLJ0RFA2ATEF:00000008 [INF] Request starting HTTP/1.1 POST http://localhost:29007/api/Order/Update application/json 308 (ca22a1cb)
2018-12-13T11:24:07.8584271+02:00 0HLJ0RFA2ATEF:00000008 [INF] Policy execution successful. (0204925d)
2018-12-13T11:24:07.8834549+02:00 0HLJ0RFA2ATEF:00000008 [INF] Successfully validated the token. (60169667)
2018-12-13T11:24:07.9071738+02:00 0HLJ0RFA2ATEF:00000008 [INF] Executing action method "Regency.Api.Controllers.OrderController.Update (Regency.Api)" with arguments (["Regency.ViewModels.Order.Post.UpdateOrderView"]) - ModelState is Valid (ba7f4ac2)
2018-12-13T11:24:07.9312366+02:00 0HLJ0RFA2ATEF:00000008 [INF] Class executed: OrderRepository; Method executed: MoveNext; Passed parametr: 8afc9ca8-0c1b-4337-8c13-2a6c4c515cbe (0c573973)
2018-12-13T11:24:07.9579643+02:00 0HLJ0RFA2ATEF:00000008 [INF] Class executed: OrderRepository; Method executed: MoveNext; Passed parametr: Regency.Entities.Entities.Regency.Entities.Entities.Order (7ffdd7a9)
2018-12-13T11:24:07.9631810+02:00 0HLJ0RFA2ATEF:00000008 [INF] Executing HttpStatusCodeResult, setting HTTP status code 200 (e28ccfae)
2018-12-13T11:24:07.9666885+02:00 0HLJ0RFA2ATEF:00000008 [INF] Executed action "Regency.Api.Controllers.OrderController.Update (Regency.Api)" in 79.6399ms (afa2e885)
2018-12-13T11:24:07.9763042+02:00 0HLJ0RFA2ATEF:00000008 [INF] Request finished in 137.0722ms 200  (791a596a)
2018-12-13T11:24:13.6896354+02:00 0HLJ0RFA2ATEE:0000000A [INF] Request starting HTTP/1.1 OPTIONS http://localhost:29007/api/Order/GetAll   (ca22a1cb)
2018-12-13T11:24:13.6935114+02:00 0HLJ0RFA2ATEE:0000000A [INF] Policy execution successful. (0204925d)
2018-12-13T11:24:13.6990808+02:00 0HLJ0RFA2ATEE:0000000A [INF] Request finished in 8.1376ms 204  (791a596a)
2018-12-13T11:24:13.7999299+02:00 0HLJ0RFA2ATEG:0000000B [INF] Request starting HTTP/1.1 GET http://localhost:29007/api/Order/GetAll   (ca22a1cb)
2018-12-13T11:24:13.8044803+02:00 0HLJ0RFA2ATEG:0000000B [INF] Policy execution successful. (0204925d)
2018-12-13T11:24:13.8278871+02:00 0HLJ0RFA2ATEG:0000000B [INF] Successfully validated the token. (60169667)
2018-12-13T11:24:13.8333662+02:00 0HLJ0RFA2ATEG:0000000B [INF] Executing action method "Regency.Api.Controllers.OrderController.GetAll (Regency.Api)" with arguments (null) - ModelState is Valid (ba7f4ac2)
2018-12-13T11:24:13.8364023+02:00 0HLJ0RFA2ATEG:0000000B [INF] Class executed: OrderRepository; Method executed: MoveNext (bc3778bd)
2018-12-13T11:24:13.8665662+02:00 0HLJ0RFA2ATEG:0000000B [INF] Executing ObjectResult, writing value "Microsoft.AspNetCore.Mvc.ControllerContext". (4e968210)
2018-12-13T11:24:13.8804931+02:00 0HLJ0RFA2ATEG:0000000B [INF] Executed action "Regency.Api.Controllers.OrderController.GetAll (Regency.Api)" in 39.9438ms (afa2e885)
2018-12-13T11:24:13.9169134+02:00 0HLJ0RFA2ATEG:0000000B [INF] Request finished in 97.3378ms 200 application/json; charset=utf-8 (791a596a)
2018-12-13T12:01:04.4215204+02:00  [WRN] No type was specified for the decimal column '"Amount"' on entity type '"OrderCustomerQuote"'. This will cause values to be silently truncated if they do not fit in the default precision and scale. Explicitly specify the SQL server column type that can accommodate all the values using 'ForHasColumnType()'. (b5b4253a)
2018-12-13T12:01:04.4316392+02:00  [WRN] No type was specified for the decimal column '"Qty"' on entity type '"OrderCustomerQuote"'. This will cause values to be silently truncated if they do not fit in the default precision and scale. Explicitly specify the SQL server column type that can accommodate all the values using 'ForHasColumnType()'. (b5b4253a)
2018-12-13T12:01:04.4350943+02:00  [WRN] No type was specified for the decimal column '"TotalAmount"' on entity type '"OrderCustomerQuote"'. This will cause values to be silently truncated if they do not fit in the default precision and scale. Explicitly specify the SQL server column type that can accommodate all the values using 'ForHasColumnType()'. (b5b4253a)
2018-12-13T12:01:04.4397169+02:00  [WRN] No type was specified for the decimal column '"Amount"' on entity type '"OrderVendorQuote"'. This will cause values to be silently truncated if they do not fit in the default precision and scale. Explicitly specify the SQL server column type that can accommodate all the values using 'ForHasColumnType()'. (b5b4253a)
2018-12-13T12:01:04.4451121+02:00  [WRN] No type was specified for the decimal column '"Qty"' on entity type '"OrderVendorQuote"'. This will cause values to be silently truncated if they do not fit in the default precision and scale. Explicitly specify the SQL server column type that can accommodate all the values using 'ForHasColumnType()'. (b5b4253a)
2018-12-13T12:01:04.4484004+02:00  [WRN] No type was specified for the decimal column '"TotalAmount"' on entity type '"OrderVendorQuote"'. This will cause values to be silently truncated if they do not fit in the default precision and scale. Explicitly specify the SQL server column type that can accommodate all the values using 'ForHasColumnType()'. (b5b4253a)
2018-12-13T12:01:04.4515744+02:00  [WRN] No type was specified for the decimal column '"Qty"' on entity type '"Order"'. This will cause values to be silently truncated if they do not fit in the default precision and scale. Explicitly specify the SQL server column type that can accommodate all the values using 'ForHasColumnType()'. (b5b4253a)
2018-12-13T12:01:04.5648842+02:00  [INF] Entity Framework Core "2.1.4-rtm-31024" initialized '"ApplicationDbContext"' using provider '"Microsoft.EntityFrameworkCore.SqlServer"' with options: "MigrationsAssembly=Regency.DataAccess " (9958f5bb)
2018-12-13T12:01:05.2278991+02:00  [INF] Executed DbCommand ("85"ms) [Parameters=["@__role_0='?' (Size = 256)"], CommandType='Text', CommandTimeout='30']"
""SELECT CASE
    WHEN EXISTS (
        SELECT 1
        FROM [AspNetRoles] AS [r]
        WHERE [r].[Name] = @__role_0)
    THEN CAST(1 AS BIT) ELSE CAST(0 AS BIT)
END" (0723d8ff)
2018-12-13T12:01:05.3125494+02:00  [INF] Executed DbCommand ("4"ms) [Parameters=["@__role_0='?' (Size = 256)"], CommandType='Text', CommandTimeout='30']"
""SELECT CASE
    WHEN EXISTS (
        SELECT 1
        FROM [AspNetRoles] AS [r]
        WHERE [r].[Name] = @__role_0)
    THEN CAST(1 AS BIT) ELSE CAST(0 AS BIT)
END" (0723d8ff)
2018-12-13T12:01:05.3425851+02:00  [INF] Executed DbCommand ("1"ms) [Parameters=["@__user_UserName_0='?' (Size = 256)"], CommandType='Text', CommandTimeout='30']"
""SELECT CASE
    WHEN EXISTS (
        SELECT 1
        FROM [AspNetUsers] AS [u]
        WHERE [u].[UserName] = @__user_UserName_0)
    THEN CAST(1 AS BIT) ELSE CAST(0 AS BIT)
END" (0723d8ff)
2018-12-13T12:01:05.4692159+02:00  [INF] Executed DbCommand ("20"ms) [Parameters=["@__normalizedEmail_0='?' (Size = 256)"], CommandType='Text', CommandTimeout='30']"
""SELECT TOP(1) [u].[Id], [u].[AccessFailedCount], [u].[ConcurrencyStamp], [u].[Email], [u].[EmailConfirmed], [u].[FirstName], [u].[LastName], [u].[LockoutEnabled], [u].[LockoutEnd], [u].[NormalizedEmail], [u].[NormalizedUserName], [u].[PasswordHash], [u].[PhoneNumber], [u].[PhoneNumberConfirmed], [u].[SecurityStamp], [u].[Status], [u].[TwoFactorEnabled], [u].[UserName]
FROM [AspNetUsers] AS [u]
WHERE [u].[NormalizedEmail] = @__normalizedEmail_0" (0723d8ff)
2018-12-13T12:01:05.6400985+02:00  [INF] Executed DbCommand ("12"ms) [Parameters=["@__normalizedRoleName_0='?' (Size = 256)"], CommandType='Text', CommandTimeout='30']"
""SELECT TOP(2) [r].[Id], [r].[ConcurrencyStamp], [r].[Name], [r].[NormalizedName]
FROM [AspNetRoles] AS [r]
WHERE [r].[NormalizedName] = @__normalizedRoleName_0" (0723d8ff)
2018-12-13T12:01:05.7210235+02:00  [INF] Executed DbCommand ("1"ms) [Parameters=["@__get_Item_0='?' (Size = 450), @__get_Item_1='?' (Size = 450)"], CommandType='Text', CommandTimeout='30']"
""SELECT TOP(1) [e].[UserId], [e].[RoleId]
FROM [AspNetUserRoles] AS [e]
WHERE ([e].[UserId] = @__get_Item_0) AND ([e].[RoleId] = @__get_Item_1)" (0723d8ff)
2018-12-13T12:01:05.7697724+02:00  [WRN] User "9c4989af-de13-4852-9fa8-d5a40d851a75" is already in role "Admin". (337e5c15)
2018-12-13T12:01:06.0586775+02:00 0HLJ0S7IT5BK4:00000001 [INF] Request starting HTTP/1.1 DEBUG http://localhost:29007/  0 (ca22a1cb)
2018-12-13T12:01:06.0712159+02:00 0HLJ0S7IT5BK3:00000001 [INF] Request starting HTTP/1.1 GET http://localhost:29007/   (ca22a1cb)
2018-12-13T12:01:06.1985535+02:00 0HLJ0S7IT5BK4:00000001 [INF] Request finished in 192.1408ms 200  (791a596a)
2018-12-13T12:01:06.7874531+02:00 0HLJ0S7IT5BK3:00000001 [INF] Request finished in 663.777ms 404  (791a596a)
